{
	"info": {
		"_postman_id": "b92a2cea-7fd7-41f8-b0c7-68bebdc24547",
		"name": "bookmyseat",
		"schema": "https://schema.getpostman.com/json/collection/v2.1.0/collection.json"
	},
	"item": [
		{
			"name": "localhost:3000/tickets/tickets/open",
			"protocolProfileBehavior": {
				"disableBodyPruning": true
			},
			"request": {
				"method": "GET",
				"header": [],
				"body": {
					"mode": "raw",
					"raw": "",
					"options": {
						"raw": {
							"language": "json"
						}
					}
				},
				"url": {
					"raw": "localhost:3000/tickets/tickets/open",
					"host": [
						"localhost"
					],
					"port": "3000",
					"path": [
						"tickets",
						"tickets",
						"open"
					]
				},
				"description": "For viewing all the open tickets"
			},
			"response": []
		},
		{
			"name": "localhost:3000/tickets/ticket/details",
			"request": {
				"method": "POST",
				"header": [],
				"body": {
					"mode": "raw",
					"raw": "{\r\n    \"seat_no\":\"18\",\r\n    \"is_available\":\"true\"\r\n}",
					"options": {
						"raw": {
							"language": "json"
						}
					}
				},
				"url": {
					"raw": "localhost:3000/tickets/ticket/details",
					"host": [
						"localhost"
					],
					"port": "3000",
					"path": [
						"tickets",
						"ticket",
						"details"
					]
				},
				"description": "for creating ticket "
			},
			"response": []
		},
		{
			"name": "localhost:3000/tickets/tickets/closed",
			"protocolProfileBehavior": {
				"disableBodyPruning": true
			},
			"request": {
				"method": "GET",
				"header": [],
				"body": {
					"mode": "raw",
					"raw": "",
					"options": {
						"raw": {
							"language": "json"
						}
					}
				},
				"url": {
					"raw": "localhost:3000/tickets/tickets/closed",
					"host": [
						"localhost"
					],
					"port": "3000",
					"path": [
						"tickets",
						"tickets",
						"closed"
					]
				},
				"description": "For viewing all the closed tickets"
			},
			"response": []
		},
		{
			"name": "localhost:3000/tickets/ticket/details/5fa9165cdafab67764e07884",
			"request": {
				"method": "GET",
				"header": [],
				"url": {
					"raw": "localhost:3000/tickets/ticket/details/5fa91d0d689dc979a002031",
					"host": [
						"localhost"
					],
					"port": "3000",
					"path": [
						"tickets",
						"ticket",
						"details",
						"5fa91d0d689dc979a002031"
					]
				},
				"description": "For viewing the details of the person/user who owns the ticket"
			},
			"response": []
		},
		{
			"name": "localhost:3000/tickets/ticket/5fa9165cdafab67764e07884",
			"request": {
				"method": "GET",
				"header": [],
				"url": {
					"raw": "localhost:3000/tickets/ticket/5fa9165cdafab67764e07884",
					"host": [
						"localhost"
					],
					"port": "3000",
					"path": [
						"tickets",
						"ticket",
						"5fa9165cdafab67764e07884"
					]
				},
				"description": "For viewing the specific ticket status"
			},
			"response": []
		},
		{
			"name": "localhost:3000/tickets/ticket/5fa9165cdafab67764e07884",
			"request": {
				"method": "PUT",
				"header": [],
				"body": {
					"mode": "raw",
					"raw": "{\r\n        \"is_available\":\"false\",\r\n        \"passenger\":{\r\n            \"name\":\"Dhanu\",\r\n            \"gender\":\"female\",\r\n            \"age\":\"21\",\r\n            \"phone\":\"7412345712\",\r\n            \"email\":\"dhanu12@gmail.com\"\r\n        }    \r\n}",
					"options": {
						"raw": {
							"language": "json"
						}
					}
				},
				"url": {
					"raw": "localhost:3000/tickets/ticket/5fa9165cdafab67764e07884",
					"host": [
						"localhost"
					],
					"port": "3000",
					"path": [
						"tickets",
						"ticket",
						"5fa9165cdafab67764e07884"
					]
				},
				"description": "For updating the ticket status and also for updating or adding user details to the ticket"
			},
			"response": []
		},
		{
			"name": "localhost:3000/tickets/tickets/reset",
			"request": {
				"method": "POST",
				"header": [],
				"body": {
					"mode": "raw",
					"raw": "{\r\n    \"username\":\"admin\",\r\n    \"password\":\"admin\"\r\n}",
					"options": {
						"raw": {
							"language": "json"
						}
					}
				},
				"url": {
					"raw": "localhost:3000/tickets/tickets/reset",
					"host": [
						"localhost"
					],
					"port": "3000",
					"path": [
						"tickets",
						"tickets",
						"reset"
					]
				},
				"description": "for reseting the ticket to available state by the admin"
			},
			"response": []
		}
	],
	"protocolProfileBehavior": {}
}